singlecycle.vcd
$date
	Mon Apr 17 14:52:17 2023
$end
$version
	Icarus Verilog
$end
$timescale
	1ps
$end
$scope module SingleCycleProcTest_v $end
$var wire 64 ! currentPC [63:0] $end
$var wire 64 " MemtoRegOut [63:0] $end
$var reg 1 # CLK $end
$var reg 1 $ Reset_L $end
$var reg 8 % passed [7:0] $end
$var reg 64 & startPC [63:0] $end
$var reg 16 ' watchdog [15:0] $end
$scope module uut $end
$var wire 1 # CLK $end
$var wire 1 $ resetl $end
$var wire 64 ( startpc [63:0] $end
$var wire 1 ) zero $end
$var wire 1 * uncond_branch $end
$var wire 3 + signop [2:0] $end
$var wire 5 , rn [4:0] $end
$var wire 5 - rm [4:0] $end
$var wire 1 . regwrite $end
$var wire 64 / regoutB [63:0] $end
$var wire 64 0 regoutA [63:0] $end
$var wire 1 1 reg2loc $end
$var wire 64 2 readdata [63:0] $end
$var wire 5 3 rd [4:0] $end
$var wire 11 4 opcode [10:0] $end
$var wire 64 5 nextpc [63:0] $end
$var wire 1 6 memwrite $end
$var wire 1 7 memread $end
$var wire 1 8 mem2reg $end
$var wire 32 9 instruction [31:0] $end
$var wire 64 : extimm [63:0] $end
$var wire 1 ; branch $end
$var wire 1 < alusrc $end
$var wire 64 = aluout [63:0] $end
$var wire 4 > aluctrl [3:0] $end
$var wire 64 ? alub [63:0] $end
$var wire 64 @ MemtoRegOut [63:0] $end
$var reg 64 A currentpc [63:0] $end
$scope module ALU $end
$var wire 64 B BusB [63:0] $end
$var wire 1 ) Zero $end
$var wire 64 C BusA [63:0] $end
$var wire 4 D ALUCtrl [3:0] $end
$var reg 64 E BusW [63:0] $end
$upscope $end
$scope module control $end
$var wire 11 F opcode [10:0] $end
$var reg 4 G aluop [3:0] $end
$var reg 1 < alusrc $end
$var reg 1 ; branch $end
$var reg 1 8 mem2reg $end
$var reg 1 7 memread $end
$var reg 1 6 memwrite $end
$var reg 1 1 reg2loc $end
$var reg 1 . regwrite $end
$var reg 3 H signop [2:0] $end
$var reg 1 * uncond_branch $end
$upscope $end
$scope module datamemory $end
$var wire 64 I Address [63:0] $end
$var wire 1 # Clock $end
$var wire 1 7 MemoryRead $end
$var wire 1 6 MemoryWrite $end
$var wire 64 J WriteData [63:0] $end
$var reg 64 K ReadData [63:0] $end
$scope task initset $end
$var reg 64 L addr [63:0] $end
$var reg 64 M data [63:0] $end
$upscope $end
$upscope $end
$scope module imem $end
$var wire 64 N Address [63:0] $end
$var reg 32 O Data [31:0] $end
$upscope $end
$scope module nextpclogic $end
$var wire 1 ) ALUZero $end
$var wire 1 ; Branch $end
$var wire 64 P CurrentPC [63:0] $end
$var wire 1 * Uncondbranch $end
$var wire 64 Q SignExtImm64 [63:0] $end
$var reg 64 R NextPC [63:0] $end
$upscope $end
$scope module registerfile $end
$var wire 64 S BusA [63:0] $end
$var wire 64 T BusB [63:0] $end
$var wire 64 U BusW [63:0] $end
$var wire 1 # Clk $end
$var wire 5 V RA [4:0] $end
$var wire 5 W RB [4:0] $end
$var wire 5 X RW [4:0] $end
$var wire 1 . RegWr $end
$upscope $end
$scope module signextender $end
$var wire 3 Y Ctrl [2:0] $end
$var wire 26 Z Imm26 [25:0] $end
$var reg 64 [ BusImm [63:0] $end
$upscope $end
$upscope $end
$scope task allPassed $end
$var reg 8 \ numTests [7:0] $end
$var reg 8 ] passed [7:0] $end
$upscope $end
$scope task passTest $end
$var reg 64 ^ actualOut [63:0] $end
$var reg 64 _ expectedOut [63:0] $end
$var reg 8 ` passed [7:0] $end
$var reg 257 a testType [256:0] $end
$upscope $end
$upscope $end
$enddefinitions $end
#0
$dumpvars
bx a
bx `
bx _
bx ^
bx ]
bx \
bx [
bx Z
bx Y
bx X
bx W
bx V
bx U
bx T
bx S
bx R
bx Q
bx P
bx O
bx N
b0 M
b100000 L
bx K
bx J
bx I
bx H
bx G
bx F
bx E
bx D
bx C
bx B
bx A
bx @
bx ?
bx >
bx =
x<
x;
bx :
bx 9
x8
x7
x6
bx 5
bx 4
bx 3
bx 2
x1
bx 0
bx /
x.
bx -
bx ,
bx +
x*
x)
b0 (
b0 '
b0 &
b0 %
1$
0#
bx "
bx !
$end
#60000
1#
#120000
b1 '
0#
#121000
0$
#180000
1#
#240000
b10 '
0#
#240003
1)
b0 ?
b0 B
b0 :
b0 Q
b0 [
b1 +
b1 H
b1 Y
b10 >
b10 D
b10 G
1.
1<
06
18
17
0;
0*
b0x00x ,
b0x00x W
b10000000000001111101001 Z
b11111000010 4
b11111000010 F
b11111 -
b11111 V
b1001 3
b1001 X
b11111000010000000000001111101001 9
b11111000010000000000001111101001 O
b100 5
b100 R
b0 !
b0 A
b0 N
b0 P
#240005
b0 =
b0 E
b0 I
b0 0
b0 C
b0 S
#300000
b1 "
b1 @
b1 U
b1 2
b1 K
1$
1#
#360000
b11 '
0#
#360003
b1000 =
b1000 E
b1000 I
0)
b1000 ?
b1000 B
b1000 :
b1000 Q
b1000 [
b0x0x0 ,
b0x0x0 W
b10000001000001111101010 Z
b1010 3
b1010 X
b11111000010000001000001111101010 9
b11111000010000001000001111101010 O
b1000 5
b1000 R
b100 !
b100 A
b100 N
b100 P
#420000
b1010 "
b1010 @
b1010 U
b1010 2
b1010 K
1#
#480000
b100 '
0#
#480003
b10000 =
b10000 E
b10000 I
b10000 ?
b10000 B
b10000 :
b10000 Q
b10000 [
b0x0x1 ,
b0x0x1 W
b10000010000001111101011 Z
b1011 3
b1011 X
b11111000010000010000001111101011 9
b11111000010000010000001111101011 O
b1100 5
b1100 R
b1000 !
b1000 A
b1000 N
b1000 P
#540000
b101 "
b101 @
b101 U
b101 2
b101 K
1#
#600000
b101 '
0#
#600003
b11000 =
b11000 E
b11000 I
b11000 ?
b11000 B
b11000 :
b11000 Q
b11000 [
b0xx0x ,
b0xx0x W
b10000011000001111101100 Z
b1100 3
b1100 X
b11111000010000011000001111101100 9
b11111000010000011000001111101100 O
b10000 5
b10000 R
b1100 !
b1100 A
b1100 N
b1100 P
#660000
b111111111011111010100111110111101010110110111110111011111111 "
b111111111011111010100111110111101010110110111110111011111111 @
b111111111011111010100111110111101010110110111110111011111111 U
b111111111011111010100111110111101010110110111110111011111111 2
b111111111011111010100111110111101010110110111110111011111111 K
1#
#720000
b110 '
0#
#720003
b100000 =
b100000 E
b100000 I
b100000 ?
b100000 B
b100000 :
b100000 Q
b100000 [
b0xxxx ,
b0xxxx W
b10000100000001111101101 Z
b1101 3
b1101 X
b11111000010000100000001111101101 9
b11111000010000100000001111101101 O
b10100 5
b10100 R
b10000 !
b10000 A
b10000 N
b10000 P
#780000
b0 "
b0 @
b0 U
b0 2
b0 K
1#
#840000
b111 '
0#
#840003
bx =
bx E
bx I
x)
bx ?
bx B
bx "
bx @
bx U
bx +
bx H
bx Y
b1 >
b1 D
b1 G
0<
08
07
01
b1011 ,
b1011 W
b10000010110000000101001010 Z
b10101010000 4
b10101010000 F
b1010 -
b1010 V
b1010 3
b1010 X
b10101010000010110000000101001010 9
b10101010000010110000000101001010 O
b11000 5
b11000 R
b10100 !
b10100 A
b10100 N
b10100 P
#840005
b1111 "
b1111 @
b1111 U
0)
b101 ?
b101 B
b1111 =
b1111 E
b1111 I
b101 /
b101 J
b101 T
b1010 0
b1010 C
b1010 S
#900000
1#
#960000
b1000 '
0#
#960003
b0 "
b0 @
b0 U
b0 =
b0 E
b0 I
b0 >
b0 D
b0 G
b1010 ,
b1010 W
b10000010100000000110001100 Z
b10001010000 4
b10001010000 F
b1100 -
b1100 V
b1100 3
b1100 X
b10001010000010100000000110001100 9
b10001010000010100000000110001100 O
b11100 5
b11100 R
b11000 !
b11000 A
b11000 N
b11000 P
#960005
b1111 "
b1111 @
b1111 U
b1111 ?
b1111 B
b1111 =
b1111 E
b1111 I
b1111 /
b1111 J
b1111 T
b111111111011111010100111110111101010110110111110111011111111 0
b111111111011111010100111110111101010110110111110111011111111 C
b111111111011111010100111110111101010110110111110111011111111 S
#1020000
1#
#1080000
b1001 '
0#
#1080003
b0xxxx "
b0xxxx @
b0xxxx U
b10000 :
b10000 Q
b10000 [
b11 +
b11 H
b11 Y
b111 >
b111 D
b111 G
0.
x8
1;
11
b1100 ,
b1100 W
b10001100 Z
b10110100000 4
b10110100000 F
b100 -
b100 V
b10110100000000000000000010001100 9
b10110100000000000000000010001100 O
b100000 5
b100000 R
b11100 !
b11100 A
b11100 N
b11100 P
#1080005
bx 0
bx C
bx S
#1140000
1#
#1200000
b1010 '
0#
#1200003
bx =
bx E
bx I
bx "
bx @
bx U
bx +
bx H
bx Y
b10 >
b10 D
b10 G
1.
08
0;
01
b1001 ,
b1001 W
b11000010010000000110101101 Z
b10001011000 4
b10001011000 F
b1101 -
b1101 V
b1101 3
b1101 X
b10001011000010010000000110101101 9
b10001011000010010000000110101101 O
b100100 5
b100100 R
b100000 !
b100000 A
b100000 N
b100000 P
#1200005
b1 "
b1 @
b1 U
b1 ?
b1 B
b1 =
b1 E
b1 I
b1 /
b1 J
b1 T
b0 0
b0 C
b0 S
#1260000
1#
#1320000
b1011 '
0#
#1320003
b1111111111111111111111111111111111111111111111111111111111111111 "
b1111111111111111111111111111111111111111111111111111111111111111 @
b1111111111111111111111111111111111111111111111111111111111111111 U
b1111111111111111111111111111111111111111111111111111111111111111 =
b1111111111111111111111111111111111111111111111111111111111111111 E
b1111111111111111111111111111111111111111111111111111111111111111 I
b110 >
b110 D
b110 G
b11000010010000000110001100 Z
b11001011000 4
b11001011000 F
b1100 -
b1100 V
b1100 3
b1100 X
b11001011000010010000000110001100 9
b11001011000010010000000110001100 O
b101000 5
b101000 R
b100100 !
b100100 A
b100100 N
b100100 P
#1320005
b1110 "
b1110 @
b1110 U
b1110 =
b1110 E
b1110 I
b1111 0
b1111 C
b1111 S
#1380000
1#
#1440000
b1100 '
0#
#1440003
x)
bx0x0x ?
bx0x0x B
b0xxx0 "
b0xxx0 @
b0xxx0 U
b1111111111111111111111111111111111111111111111111111111111110100 :
b1111111111111111111111111111111111111111111111111111111111110100 Q
b1111111111111111111111111111111111111111111111111111111111110100 [
b10 +
b10 H
b10 Y
bx >
bx D
bx G
0.
x<
x8
x;
1*
x1
b111x1 ,
b111x1 W
b11111111111111111111111101 Z
b10111111 4
b10111111 F
b11111 -
b11111 V
b11101 3
b11101 X
b10111111111111111111111111101 9
b10111111111111111111111111101 O
b11100 5
b11100 R
b101000 !
b101000 A
b101000 N
b101000 P
#1440005
bx ?
bx B
bx /
bx J
bx T
b0 0
b0 C
b0 S
#1500000
1#
#1560000
b1101 '
0#
#1560003
bx "
bx @
bx U
bx =
bx E
bx I
b10000 :
b10000 Q
b10000 [
b11 +
b11 H
b11 Y
b111 >
b111 D
b111 G
0<
1;
0*
11
b1100 ,
b1100 W
b10001100 Z
b10110100000 4
b10110100000 F
b100 -
b100 V
b1100 3
b1100 X
b10110100000000000000000010001100 9
b10110100000000000000000010001100 O
b100000 5
b100000 R
b11100 !
b11100 A
b11100 N
b11100 P
#1560005
b0xxx0 "
b0xxx0 @
b0xxx0 U
b1110 =
b1110 E
b1110 I
0)
b1110 ?
b1110 B
b1110 /
b1110 J
b1110 T
bx 0
bx C
bx S
#1620000
1#
#1680000
b1110 '
0#
#1680003
bx =
bx E
bx I
bx "
bx @
bx U
bx +
bx H
bx Y
b10 >
b10 D
b10 G
1.
08
0;
01
b1001 ,
b1001 W
b11000010010000000110101101 Z
b10001011000 4
b10001011000 F
b1101 -
b1101 V
b1101 3
b1101 X
b10001011000010010000000110101101 9
b10001011000010010000000110101101 O
b100100 5
b100100 R
b100000 !
b100000 A
b100000 N
b100000 P
#1680005
b10 "
b10 @
b10 U
b1 ?
b1 B
b10 =
b10 E
b10 I
b1 /
b1 J
b1 T
b1 0
b1 C
b1 S
#1740000
1#
#1800000
b1111 '
0#
#1800003
b0 "
b0 @
b0 U
b0 =
b0 E
b0 I
b110 >
b110 D
b110 G
b11000010010000000110001100 Z
b11001011000 4
b11001011000 F
b1100 -
b1100 V
b1100 3
b1100 X
b11001011000010010000000110001100 9
b11001011000010010000000110001100 O
b101000 5
b101000 R
b100100 !
b100100 A
b100100 N
b100100 P
#1800005
b1101 "
b1101 @
b1101 U
b1101 =
b1101 E
b1101 I
b1110 0
b1110 C
b1110 S
#1860000
1#
#1920000
b10000 '
0#
#1920003
x)
bx0x0x ?
bx0x0x B
b0xx0x "
b0xx0x @
b0xx0x U
b1111111111111111111111111111111111111111111111111111111111110100 :
b1111111111111111111111111111111111111111111111111111111111110100 Q
b1111111111111111111111111111111111111111111111111111111111110100 [
b10 +
b10 H
b10 Y
bx >
bx D
bx G
0.
x<
x8
x;
1*
x1
b111x1 ,
b111x1 W
b11111111111111111111111101 Z
b10111111 4
b10111111 F
b11111 -
b11111 V
b11101 3
b11101 X
b10111111111111111111111111101 9
b10111111111111111111111111101 O
b11100 5
b11100 R
b101000 !
b101000 A
b101000 N
b101000 P
#1920005
bx ?
bx B
bx /
bx J
bx T
b0 0
b0 C
b0 S
#1980000
1#
#2040000
b10001 '
0#
#2040003
bx "
bx @
bx U
bx =
bx E
bx I
b10000 :
b10000 Q
b10000 [
b11 +
b11 H
b11 Y
b111 >
b111 D
b111 G
0<
1;
0*
11
b1100 ,
b1100 W
b10001100 Z
b10110100000 4
b10110100000 F
b100 -
b100 V
b1100 3
b1100 X
b10110100000000000000000010001100 9
b10110100000000000000000010001100 O
b100000 5
b100000 R
b11100 !
b11100 A
b11100 N
b11100 P
#2040005
b0xx0x "
b0xx0x @
b0xx0x U
b1101 =
b1101 E
b1101 I
0)
b1101 ?
b1101 B
b1101 /
b1101 J
b1101 T
bx 0
bx C
bx S
#2100000
1#
#2160000
b10010 '
0#
#2160003
bx =
bx E
bx I
bx "
bx @
bx U
bx +
bx H
bx Y
b10 >
b10 D
b10 G
1.
08
0;
01
b1001 ,
b1001 W
b11000010010000000110101101 Z
b10001011000 4
b10001011000 F
b1101 -
b1101 V
b1101 3
b1101 X
b10001011000010010000000110101101 9
b10001011000010010000000110101101 O
b100100 5
b100100 R
b100000 !
b100000 A
b100000 N
b100000 P
#2160005
b11 "
b11 @
b11 U
b1 ?
b1 B
b11 =
b11 E
b11 I
b1 /
b1 J
b1 T
b10 0
b10 C
b10 S
#2220000
1#
#2280000
b10011 '
0#
#2280003
b1 "
b1 @
b1 U
b1 =
b1 E
b1 I
b110 >
b110 D
b110 G
b11000010010000000110001100 Z
b11001011000 4
b11001011000 F
b1100 -
b1100 V
b1100 3
b1100 X
b11001011000010010000000110001100 9
b11001011000010010000000110001100 O
b101000 5
b101000 R
b100100 !
b100100 A
b100100 N
b100100 P
#2280005
b1100 "
b1100 @
b1100 U
b1100 =
b1100 E
b1100 I
b1101 0
b1101 C
b1101 S
#2340000
1#
#2400000
b10100 '
0#
#2400003
x)
bx0x0x ?
bx0x0x B
b0xx00 "
b0xx00 @
b0xx00 U
b1111111111111111111111111111111111111111111111111111111111110100 :
b1111111111111111111111111111111111111111111111111111111111110100 Q
b1111111111111111111111111111111111111111111111111111111111110100 [
b10 +
b10 H
b10 Y
bx >
bx D
bx G
0.
x<
x8
x;
1*
x1
b111x1 ,
b111x1 W
b11111111111111111111111101 Z
b10111111 4
b10111111 F
b11111 -
b11111 V
b11101 3
b11101 X
b10111111111111111111111111101 9
b10111111111111111111111111101 O
b11100 5
b11100 R
b101000 !
b101000 A
b101000 N
b101000 P
#2400005
bx ?
bx B
bx /
bx J
bx T
b0 0
b0 C
b0 S
#2460000
1#
#2520000
b10101 '
0#
#2520003
bx "
bx @
bx U
bx =
bx E
bx I
b10000 :
b10000 Q
b10000 [
b11 +
b11 H
b11 Y
b111 >
b111 D
b111 G
0<
1;
0*
11
b1100 ,
b1100 W
b10001100 Z
b10110100000 4
b10110100000 F
b100 -
b100 V
b1100 3
b1100 X
b10110100000000000000000010001100 9
b10110100000000000000000010001100 O
b100000 5
b100000 R
b11100 !
b11100 A
b11100 N
b11100 P
#2520005
b0xx00 "
b0xx00 @
b0xx00 U
b1100 =
b1100 E
b1100 I
0)
b1100 ?
b1100 B
b1100 /
b1100 J
b1100 T
bx 0
bx C
bx S
#2580000
1#
#2640000
b10110 '
0#
#2640003
bx =
bx E
bx I
bx "
bx @
bx U
bx +
bx H
bx Y
b10 >
b10 D
b10 G
1.
08
0;
01
b1001 ,
b1001 W
b11000010010000000110101101 Z
b10001011000 4
b10001011000 F
b1101 -
b1101 V
b1101 3
b1101 X
b10001011000010010000000110101101 9
b10001011000010010000000110101101 O
b100100 5
b100100 R
b100000 !
b100000 A
b100000 N
b100000 P
#2640005
b100 "
b100 @
b100 U
b1 ?
b1 B
b100 =
b100 E
b100 I
b1 /
b1 J
b1 T
b11 0
b11 C
b11 S
#2700000
1#
#2760000
b10111 '
0#
#2760003
b10 "
b10 @
b10 U
b10 =
b10 E
b10 I
b110 >
b110 D
b110 G
b11000010010000000110001100 Z
b11001011000 4
b11001011000 F
b1100 -
b1100 V
b1100 3
b1100 X
b11001011000010010000000110001100 9
b11001011000010010000000110001100 O
b101000 5
b101000 R
b100100 !
b100100 A
b100100 N
b100100 P
#2760005
b1011 "
b1011 @
b1011 U
b1011 =
b1011 E
b1011 I
b1100 0
b1100 C
b1100 S
#2820000
1#
#2880000
b11000 '
0#
#2880003
x)
bx0x0x ?
bx0x0x B
b0x0xx "
b0x0xx @
b0x0xx U
b1111111111111111111111111111111111111111111111111111111111110100 :
b1111111111111111111111111111111111111111111111111111111111110100 Q
b1111111111111111111111111111111111111111111111111111111111110100 [
b10 +
b10 H
b10 Y
bx >
bx D
bx G
0.
x<
x8
x;
1*
x1
b111x1 ,
b111x1 W
b11111111111111111111111101 Z
b10111111 4
b10111111 F
b11111 -
b11111 V
b11101 3
b11101 X
b10111111111111111111111111101 9
b10111111111111111111111111101 O
b11100 5
b11100 R
b101000 !
b101000 A
b101000 N
b101000 P
#2880005
bx ?
bx B
bx /
bx J
bx T
b0 0
b0 C
b0 S
#2940000
1#
#3000000
b11001 '
0#
#3000003
bx "
bx @
bx U
bx =
bx E
bx I
b10000 :
b10000 Q
b10000 [
b11 +
b11 H
b11 Y
b111 >
b111 D
b111 G
0<
1;
0*
11
b1100 ,
b1100 W
b10001100 Z
b10110100000 4
b10110100000 F
b100 -
b100 V
b1100 3
b1100 X
b10110100000000000000000010001100 9
b10110100000000000000000010001100 O
b100000 5
b100000 R
b11100 !
b11100 A
b11100 N
b11100 P
#3000005
b0x0xx "
b0x0xx @
b0x0xx U
b1011 =
b1011 E
b1011 I
0)
b1011 ?
b1011 B
b1011 /
b1011 J
b1011 T
bx 0
bx C
bx S
#3060000
1#
#3120000
b11010 '
0#
#3120003
bx =
bx E
bx I
bx "
bx @
bx U
bx +
bx H
bx Y
b10 >
b10 D
b10 G
1.
08
0;
01
b1001 ,
b1001 W
b11000010010000000110101101 Z
b10001011000 4
b10001011000 F
b1101 -
b1101 V
b1101 3
b1101 X
b10001011000010010000000110101101 9
b10001011000010010000000110101101 O
b100100 5
b100100 R
b100000 !
b100000 A
b100000 N
b100000 P
#3120005
b101 "
b101 @
b101 U
b1 ?
b1 B
b101 =
b101 E
b101 I
b1 /
b1 J
b1 T
b100 0
b100 C
b100 S
#3180000
1#
#3240000
b11011 '
0#
#3240003
b11 "
b11 @
b11 U
b11 =
b11 E
b11 I
b110 >
b110 D
b110 G
b11000010010000000110001100 Z
b11001011000 4
b11001011000 F
b1100 -
b1100 V
b1100 3
b1100 X
b11001011000010010000000110001100 9
b11001011000010010000000110001100 O
b101000 5
b101000 R
b100100 !
b100100 A
b100100 N
b100100 P
#3240005
b1010 "
b1010 @
b1010 U
b1010 =
b1010 E
b1010 I
b1011 0
b1011 C
b1011 S
#3300000
1#
#3360000
b11100 '
0#
#3360003
x)
bx0x0x ?
bx0x0x B
b0x0x0 "
b0x0x0 @
b0x0x0 U
b1111111111111111111111111111111111111111111111111111111111110100 :
b1111111111111111111111111111111111111111111111111111111111110100 Q
b1111111111111111111111111111111111111111111111111111111111110100 [
b10 +
b10 H
b10 Y
bx >
bx D
bx G
0.
x<
x8
x;
1*
x1
b111x1 ,
b111x1 W
b11111111111111111111111101 Z
b10111111 4
b10111111 F
b11111 -
b11111 V
b11101 3
b11101 X
b10111111111111111111111111101 9
b10111111111111111111111111101 O
b11100 5
b11100 R
b101000 !
b101000 A
b101000 N
b101000 P
#3360005
bx ?
bx B
bx /
bx J
bx T
b0 0
b0 C
b0 S
#3420000
1#
#3480000
b11101 '
0#
#3480003
bx "
bx @
bx U
bx =
bx E
bx I
b10000 :
b10000 Q
b10000 [
b11 +
b11 H
b11 Y
b111 >
b111 D
b111 G
0<
1;
0*
11
b1100 ,
b1100 W
b10001100 Z
b10110100000 4
b10110100000 F
b100 -
b100 V
b1100 3
b1100 X
b10110100000000000000000010001100 9
b10110100000000000000000010001100 O
b100000 5
b100000 R
b11100 !
b11100 A
b11100 N
b11100 P
#3480005
b0x0x0 "
b0x0x0 @
b0x0x0 U
b1010 =
b1010 E
b1010 I
0)
b1010 ?
b1010 B
b1010 /
b1010 J
b1010 T
bx 0
bx C
bx S
#3540000
1#
#3600000
b11110 '
0#
#3600003
bx =
bx E
bx I
bx "
bx @
bx U
bx +
bx H
bx Y
b10 >
b10 D
b10 G
1.
08
0;
01
b1001 ,
b1001 W
b11000010010000000110101101 Z
b10001011000 4
b10001011000 F
b1101 -
b1101 V
b1101 3
b1101 X
b10001011000010010000000110101101 9
b10001011000010010000000110101101 O
b100100 5
b100100 R
b100000 !
b100000 A
b100000 N
b100000 P
#3600005
b110 "
b110 @
b110 U
b1 ?
b1 B
b110 =
b110 E
b110 I
b1 /
b1 J
b1 T
b101 0
b101 C
b101 S
#3660000
1#
#3720000
b11111 '
0#
#3720003
b100 "
b100 @
b100 U
b100 =
b100 E
b100 I
b110 >
b110 D
b110 G
b11000010010000000110001100 Z
b11001011000 4
b11001011000 F
b1100 -
b1100 V
b1100 3
b1100 X
b11001011000010010000000110001100 9
b11001011000010010000000110001100 O
b101000 5
b101000 R
b100100 !
b100100 A
b100100 N
b100100 P
#3720005
b1001 "
b1001 @
b1001 U
b1001 =
b1001 E
b1001 I
b1010 0
b1010 C
b1010 S
#3780000
1#
#3840000
b100000 '
0#
#3840003
x)
bx0x0x ?
bx0x0x B
b0x00x "
b0x00x @
b0x00x U
b1111111111111111111111111111111111111111111111111111111111110100 :
b1111111111111111111111111111111111111111111111111111111111110100 Q
b1111111111111111111111111111111111111111111111111111111111110100 [
b10 +
b10 H
b10 Y
bx >
bx D
bx G
0.
x<
x8
x;
1*
x1
b111x1 ,
b111x1 W
b11111111111111111111111101 Z
b10111111 4
b10111111 F
b11111 -
b11111 V
b11101 3
b11101 X
b10111111111111111111111111101 9
b10111111111111111111111111101 O
b11100 5
b11100 R
b101000 !
b101000 A
b101000 N
b101000 P
#3840005
bx ?
bx B
bx /
bx J
bx T
b0 0
b0 C
b0 S
#3900000
1#
#3960000
b100001 '
0#
#3960003
bx "
bx @
bx U
bx =
bx E
bx I
b10000 :
b10000 Q
b10000 [
b11 +
b11 H
b11 Y
b111 >
b111 D
b111 G
0<
1;
0*
11
b1100 ,
b1100 W
b10001100 Z
b10110100000 4
b10110100000 F
b100 -
b100 V
b1100 3
b1100 X
b10110100000000000000000010001100 9
b10110100000000000000000010001100 O
b100000 5
b100000 R
b11100 !
b11100 A
b11100 N
b11100 P
#3960005
b0x00x "
b0x00x @
b0x00x U
b1001 =
b1001 E
b1001 I
0)
b1001 ?
b1001 B
b1001 /
b1001 J
b1001 T
bx 0
bx C
bx S
#4020000
1#
#4080000
b100010 '
0#
#4080003
bx =
bx E
bx I
bx "
bx @
bx U
bx +
bx H
bx Y
b10 >
b10 D
b10 G
1.
08
0;
01
b1001 ,
b1001 W
b11000010010000000110101101 Z
b10001011000 4
b10001011000 F
b1101 -
b1101 V
b1101 3
b1101 X
b10001011000010010000000110101101 9
b10001011000010010000000110101101 O
b100100 5
b100100 R
b100000 !
b100000 A
b100000 N
b100000 P
#4080005
b111 "
b111 @
b111 U
b1 ?
b1 B
b111 =
b111 E
b111 I
b1 /
b1 J
b1 T
b110 0
b110 C
b110 S
#4140000
1#
#4200000
b100011 '
0#
#4200003
b101 "
b101 @
b101 U
b101 =
b101 E
b101 I
b110 >
b110 D
b110 G
b11000010010000000110001100 Z
b11001011000 4
b11001011000 F
b1100 -
b1100 V
b1100 3
b1100 X
b11001011000010010000000110001100 9
b11001011000010010000000110001100 O
b101000 5
b101000 R
b100100 !
b100100 A
b100100 N
b100100 P
#4200005
b1000 "
b1000 @
b1000 U
b1000 =
b1000 E
b1000 I
b1001 0
b1001 C
b1001 S
#4260000
1#
#4320000
b100100 '
0#
#4320003
x)
bx0x0x ?
bx0x0x B
b0x000 "
b0x000 @
b0x000 U
b1111111111111111111111111111111111111111111111111111111111110100 :
b1111111111111111111111111111111111111111111111111111111111110100 Q
b1111111111111111111111111111111111111111111111111111111111110100 [
b10 +
b10 H
b10 Y
bx >
bx D
bx G
0.
x<
x8
x;
1*
x1
b111x1 ,
b111x1 W
b11111111111111111111111101 Z
b10111111 4
b10111111 F
b11111 -
b11111 V
b11101 3
b11101 X
b10111111111111111111111111101 9
b10111111111111111111111111101 O
b11100 5
b11100 R
b101000 !
b101000 A
b101000 N
b101000 P
#4320005
bx ?
bx B
bx /
bx J
bx T
b0 0
b0 C
b0 S
#4380000
1#
#4440000
b100101 '
0#
#4440003
bx "
bx @
bx U
bx =
bx E
bx I
b10000 :
b10000 Q
b10000 [
b11 +
b11 H
b11 Y
b111 >
b111 D
b111 G
0<
1;
0*
11
b1100 ,
b1100 W
b10001100 Z
b10110100000 4
b10110100000 F
b100 -
b100 V
b1100 3
b1100 X
b10110100000000000000000010001100 9
b10110100000000000000000010001100 O
b100000 5
b100000 R
b11100 !
b11100 A
b11100 N
b11100 P
#4440005
b0x000 "
b0x000 @
b0x000 U
b1000 =
b1000 E
b1000 I
0)
b1000 ?
b1000 B
b1000 /
b1000 J
b1000 T
bx 0
bx C
bx S
#4500000
1#
#4560000
b100110 '
0#
#4560003
bx =
bx E
bx I
bx "
bx @
bx U
bx +
bx H
bx Y
b10 >
b10 D
b10 G
1.
08
0;
01
b1001 ,
b1001 W
b11000010010000000110101101 Z
b10001011000 4
b10001011000 F
b1101 -
b1101 V
b1101 3
b1101 X
b10001011000010010000000110101101 9
b10001011000010010000000110101101 O
b100100 5
b100100 R
b100000 !
b100000 A
b100000 N
b100000 P
#4560005
b1000 "
b1000 @
b1000 U
b1 ?
b1 B
b1000 =
b1000 E
b1000 I
b1 /
b1 J
b1 T
b111 0
b111 C
b111 S
#4620000
1#
#4680000
b100111 '
0#
#4680003
b110 "
b110 @
b110 U
b110 =
b110 E
b110 I
b110 >
b110 D
b110 G
b11000010010000000110001100 Z
b11001011000 4
b11001011000 F
b1100 -
b1100 V
b1100 3
b1100 X
b11001011000010010000000110001100 9
b11001011000010010000000110001100 O
b101000 5
b101000 R
b100100 !
b100100 A
b100100 N
b100100 P
#4680005
b111 "
b111 @
b111 U
b111 =
b111 E
b111 I
b1000 0
b1000 C
b1000 S
#4740000
1#
#4800000
b101000 '
0#
#4800003
x)
bx0x0x ?
bx0x0x B
b0xxx "
b0xxx @
b0xxx U
b1111111111111111111111111111111111111111111111111111111111110100 :
b1111111111111111111111111111111111111111111111111111111111110100 Q
b1111111111111111111111111111111111111111111111111111111111110100 [
b10 +
b10 H
b10 Y
bx >
bx D
bx G
0.
x<
x8
x;
1*
x1
b111x1 ,
b111x1 W
b11111111111111111111111101 Z
b10111111 4
b10111111 F
b11111 -
b11111 V
b11101 3
b11101 X
b10111111111111111111111111101 9
b10111111111111111111111111101 O
b11100 5
b11100 R
b101000 !
b101000 A
b101000 N
b101000 P
#4800005
bx ?
bx B
bx /
bx J
bx T
b0 0
b0 C
b0 S
#4860000
1#
#4920000
b101001 '
0#
#4920003
bx "
bx @
bx U
bx =
bx E
bx I
b10000 :
b10000 Q
b10000 [
b11 +
b11 H
b11 Y
b111 >
b111 D
b111 G
0<
1;
0*
11
b1100 ,
b1100 W
b10001100 Z
b10110100000 4
b10110100000 F
b100 -
b100 V
b1100 3
b1100 X
b10110100000000000000000010001100 9
b10110100000000000000000010001100 O
b100000 5
b100000 R
b11100 !
b11100 A
b11100 N
b11100 P
#4920005
b0xxx "
b0xxx @
b0xxx U
b111 =
b111 E
b111 I
0)
b111 ?
b111 B
b111 /
b111 J
b111 T
bx 0
bx C
bx S
#4980000
1#
#5040000
b101010 '
0#
#5040003
bx =
bx E
bx I
bx "
bx @
bx U
bx +
bx H
bx Y
b10 >
b10 D
b10 G
1.
08
0;
01
b1001 ,
b1001 W
b11000010010000000110101101 Z
b10001011000 4
b10001011000 F
b1101 -
b1101 V
b1101 3
b1101 X
b10001011000010010000000110101101 9
b10001011000010010000000110101101 O
b100100 5
b100100 R
b100000 !
b100000 A
b100000 N
b100000 P
#5040005
b1001 "
b1001 @
b1001 U
b1 ?
b1 B
b1001 =
b1001 E
b1001 I
b1 /
b1 J
b1 T
b1000 0
b1000 C
b1000 S
#5100000
1#
#5160000
b101011 '
0#
#5160003
b111 "
b111 @
b111 U
b111 =
b111 E
b111 I
b110 >
b110 D
b110 G
b11000010010000000110001100 Z
b11001011000 4
b11001011000 F
b1100 -
b1100 V
b1100 3
b1100 X
b11001011000010010000000110001100 9
b11001011000010010000000110001100 O
b101000 5
b101000 R
b100100 !
b100100 A
b100100 N
b100100 P
#5160005
b110 "
b110 @
b110 U
b110 =
b110 E
b110 I
b111 0
b111 C
b111 S
#5220000
1#
#5280000
b101100 '
0#
